<?xml version="1.0" encoding="utf-8"?>
<!-- Generator: Adobe Illustrator 19.0.0, SVG Export Plug-In . SVG Version: 6.00 Build 0)  -->
<svg version="1.1" id="Layer_1" xmlns="http://www.w3.org/2000/svg" xmlns:xlink="http://www.w3.org/1999/xlink" x="0px" y="0px"
	 viewBox="0 0 305.9 306" style="enable-background:new 0 0 305.9 306;" xml:space="preserve">
<style type="text/css">
	.st0{fill:#E55328;}
	.st1{fill:#BCBEC0;}
</style>
<g>
	<path class="st0" d="M205.5,259.9c6.2,9.4,12.3,18.9,18.6,28.5c-2.3,1.1-4.5,2.2-6.7,3.3c-9.5,4.5-19.5,8-29.7,10.3
		c-5.9,1.3-12,2.1-18,3c-8.1,1.2-16.4,1.2-24.6,0.8c-10.1-0.4-20-2-29.8-4.5c-32-8.3-58.6-25.1-79.9-50.4
		c-13.6-16.1-23.3-34.4-29.3-54.6C3.8,188,2.1,179.5,1,170.9c-0.9-7.3-1-14.7-1-22c-0.2-21.4,5.1-41.4,14-60.7
		c8.2-17.9,19.7-33.4,34.1-46.9C62.9,27.4,79.7,17,98.7,9.8c9.6-3.6,19.5-6.4,29.6-7.8c5.9-0.8,11.8-1.6,17.7-1.8
		c6.6-0.2,13.3-0.2,19.9,0.4c21.5,1.8,41.8,8,60.8,18.4c12.3,6.8,23.5,15.1,33.5,25c0.7,0.7,1.2,1.4,2,2.2c8.7-9.1,17.2-18,26-27.1
		c6,30.5,11.9,60.7,17.9,91.1c-30.1-5.2-60.2-10.3-90.3-15.5c7.8-8.1,15.4-16.1,23.2-24.2C225,56.3,208.8,45.9,190,39.9
		c-29.5-9.5-58.6-8.2-86.7,4.8C45.4,71.4,18.4,136.6,42.4,197c12.7,32.1,35.7,54.6,67.9,67C142.5,276.4,174.3,274.4,205.5,259.9z"/>
	<path class="st0" d="M271.9,147.6c11.4,0,22.6,0,33.9,0c0.4,11.8-0.6,23.4-2.9,35.1c-10.9-2.6-21.7-5.2-32.6-7.9
		C271.7,165.7,272.3,156.8,271.9,147.6z"/>
	<path class="st0" d="M296.4,206.1c-3.7,10.1-8.5,19.6-14.3,28.7c-8.8-6.8-17.5-13.6-26-20.3c3.1-6.9,6.2-13.7,9.3-20.5
		C275.7,198,286,202,296.4,206.1z"/>
	<path class="st0" d="M266.7,255.2c-7.1,7.9-14.7,14.8-23.2,21.1c-6.2-9.5-12.4-19-18.5-28.3c5.3-4.8,10.6-9.6,15.9-14.4
		C249.3,240.7,257.9,247.9,266.7,255.2z"/>
	<g>
		<path class="st0" d="M119.1,201.2v9.1h-15.1v-9.1H75.4v-15.1l22.9-44.8h17.4l-22.9,44.8h11.1V177h15.1v9.1h5.1v15.1H119.1z"/>
		<path class="st0" d="M153.7,210.9c-12.7,0-23.2-6.9-23.2-21.2c0-8.6,5.1-12.7,7.8-14.8c-2.4-2-7.1-6.2-7.1-13.7
			c0-13.1,10.7-20.4,22.5-20.4c11.8,0,22.5,7.4,22.5,20.4c0,7.5-4.7,11.6-7.1,13.7c2.6,2.1,7.8,6.2,7.8,14.8
			C176.8,204,166.3,210.9,153.7,210.9z M153.7,182c-4,0-7.3,3.3-7.3,7.3s3.3,7.3,7.3,7.3c4,0,7.3-3.3,7.3-7.3S157.6,182,153.7,182z
			 M153.7,155.1c-3.7,0-6.6,2.9-6.6,6.6c0,3.7,2.9,6.6,6.6,6.6c3.7,0,6.6-2.9,6.6-6.6C160.2,158,157.3,155.1,153.7,155.1z"/>
		<path class="st0" d="M214.7,210.3v-31.6c0-5.6-4.1-6.8-6.1-6.8c-2,0-6.1,1.2-6.1,6.8v31.6h-15.9v-69h15.9v21.1
			c3.3-3.3,7.5-4.8,11.4-4.8c11.2,0,16.7,8.3,16.7,18.9v33.8H214.7z"/>
		<g>
			<path class="st1" d="M134.4,119.5c-1.9,1.9-4.5,2.7-7.3,2.7h-10V95.1h10c2.8,0,5.4,0.8,7.3,2.7c3.2,3.2,2.8,6.6,2.8,10.9
				C137.2,112.9,137.6,116.4,134.4,119.5z M129.8,102.5c-0.6-0.9-1.5-1.5-3.2-1.5h-2.9v15.2h2.9c1.7,0,2.6-0.6,3.2-1.5
				c0.5-0.8,0.7-1.5,0.7-6.1C130.5,104.1,130.4,103.3,129.8,102.5z"/>
			<path class="st1" d="M141.8,122.2V95.1h18.4v5.9h-11.8v4.5h10v5.9h-10v4.8h11.8v5.9H141.8z"/>
			<path class="st1" d="M178.6,122.2l-4.8-10.1h-2.2v10.1h-6.7V95.1h10.7c6,0,9.2,4.3,9.2,8.7c0,3.7-2.3,6-4.4,7.1l5.9,11.3H178.6z
				 M175.4,101.1h-3.8v5.5h3.8c1.8,0,2.9-1.3,2.9-2.7C178.3,102.4,177.2,101.1,175.4,101.1z"/>
			<path class="st1" d="M189.7,122.2V95.1h6.7v27.1H189.7z"/>
		</g>
	</g>
</g>
</svg>
