177839,12.5,1
163612,17.5,1
90756,20.5,1
190359,7.5,1
204432,8.5,1
192827,3.5,1
176392,43.5,1
186682,4.5,1
148119,66.5,1
187376,259.5,1
198851,128.5,1
187675,118.5,1
195077,273.5,1
197089,178.5,1
96321,19.5,1
155926,23.5,1
110669,50.5,1
246372,51.5,1
61283,37.5,1
175979,9.5,1
221440,729.5,2
220118,179.5,2
222111,699.5,2
215830,429.5,2
238970,799.5,2
238851,969.5,2
247834,366.6,2
248588,489.5,2
232753,859.5,2
248957,899.5,2
236454,574.5,2
215986,840.5,2
246315,501.5,2
237585,1197.5,2
240555,703.5,2
229273,284.5,2
235276,1982.5,2
245853,202.5,2
235226,463.5,2
240385,231.5,2
223712,1025.5,2
230155,238.5,2
215995,1411.5,2
246689,361.5,2
225490,823.5,2
208315,274.5,2
221169,830.5,2
242491,461.5,2
227189,552.5,2
230057,799.5,2
00,,3
200331,34.5,4
185995,53.5,4
168555,52.5,4
167227,108.5,4
223248,335.5,4
233846,236.5,4
199227,14.5,4
174737,12.5,4
201921,129.5,4
211974,248.5,4
185558,23.5,4
177443,98.5,4
246643,7.5,4
120708,28.5,4
190804,9.5,5
201937,59.5,5
193218,17.5,5
204093,358.5,5
212488,397.5,5
233311,572.5,5
245560,378.5,5
238164,713.5,5
220273,159.5,5
232227,288.5,5
248531,1649.5,5
246374,597.5,5
239098,3599.5,5
216882,6.5,5
244179,469.5,5
212003,5.5,5
249243,432.5,5
198505,192.5,5
244344,348.5,5
246584,339.5,5
215989,2692.5,6
240831,1537.5,6
233055,1592.5,6
243111,449.5,6
246584,306.5,6
243570,203.5,6
229351,1219.5,6
249244,463.5,6
249243,389.5,6
246384,248.5,6
195079,270.5,6
244337,276.5,6
211067,1293.5,6
233312,576.5,6
234264,597.5,6
229739,559.5,6
247520,801.5,6
246374,538.5,6
224184,270.5,6
204202,405.5,6
163593gj50,116.5,7
151524b4,199.5,7
240264gj50,444.5,7
240090gj50,22.5,7
186029gj84,299.5,7
215997gj50,1899.5,7
200337gj50,96.5,7
225450gj50,33.5,7
240806gj50,371.5,7
222433gj50,899.5,7
207745gj50,14.5,7
207215gj50,39.5,7
206553gj50,35.5,7
238161gj50,79.5,7
192917gj50,172.5,7
222113gj50,879.5,7
186029gj80,299.5,7
199366gj83,69.5,7
214459gj50,35.5,7
157312b13,85.5,7
gjirafa50rx570,576.5,8
gjirafa50rx560,423.5,8
gjirafa50rx580,746.5,8
gjirafa50amdbeast,1654.5,8
gjirafa50PCBeast,2032.5,8
gjirafa50i31050,478.5,8
gjirafa50i51060,623.5,8
gjirafa50i71070,828.5,8
1111111,,9