<svg xmlns="http://www.w3.org/2000/svg" xmlns:xlink="http://www.w3.org/1999/xlink" version="1.1" id="Layer_1" x="0px" y="0px" viewBox="0 0 300 300" style="enable-background:new 0 0 300 300;" xml:space="preserve">
<style type="text/css">
	.st0{fill:#E65227;}
</style>
<g>
	<path class="st0" d="M150,296C69.8,296,4.5,230.7,4.5,150.5C4.5,70.3,69.8,5,150,5s145.5,65.3,145.5,145.5   C295.5,230.7,230.2,296,150,296z M150,25C80.8,25,24.5,81.3,24.5,150.5S80.8,276,150,276s125.5-56.3,125.5-125.5S219.2,25,150,25z"/>
</g>
<g>
	<path class="st0" d="M160.7,219.4c-6.6-2-12.9-3.9-19.3-5.7c-4.7-1.4-9.3-2.8-14-4.2c-1-0.3-1.3-0.6-1.3-1.7c0-46.6,0-93.2,0-139.8   c0-0.4,0-0.8,0-1.4c3.5,0.7,6.8,1.3,10.1,2c11.5,2.3,22.8,4.9,34,8.6c7.2,2.4,14.2,5.5,20.5,9.8c7.6,5.2,12.5,12.3,14.8,21.2   c2.5,9.6,3.1,19.3,1.2,29.1c-1.1,5.4-3.3,10.3-7.5,14c-5.8,5.1-12.6,5.6-19.8,3.9c-2.2-0.5-4.3-1.5-6.4-2.2c-1.2-0.4-1.5-1-1.5-2.3   c0.1-15.6,0.1-31.2,0-46.8c0-2.3-0.5-4.7-1.1-6.9c-0.6-2.2-2.1-3.8-4.3-4.8c-2.2-0.9-3.7-0.3-4.2,2c-0.5,2.3-0.8,4.7-0.8,7.1   c-0.1,38.7-0.2,77.4-0.3,116.1C160.7,218,160.7,218.6,160.7,219.4z"/>
	<path class="st0" d="M164.9,218.2c0-6.1,0-12.1,0-18.1c0-0.3,0.6-0.8,1-1c10.6-3.8,21.2-7.6,31.8-11.4c6.5-2.3,12.9-4.6,19.4-6.9   c1.3-0.5,2.6-1.1,3.7-1.9c1.9-1.4,1.8-3.2-0.4-4.2c-3.1-1.4-6.3-1.5-9.6-1.3c-8.3,0.3-15.9,3.4-23.6,6.1c-7,2.5-14.1,4.9-21.1,7.4   c-0.4,0.1-0.8,0.2-1.3,0.4c0-4.5,0-8.9,0-13.3c0-1.4,0.1-2.9,0-4.3c-0.2-1.5,0.5-2,1.8-2.5c7.3-2.6,14.9-4.1,22.6-5   c14.8-1.7,29.5-0.7,43.7,4.1c4,1.4,8,3,11.8,4.9c1.9,0.9,3.5,2.6,4.7,4.3c2.2,2.9,1.9,6.5-0.7,9.2c-2.3,2.4-5,4.4-8.1,5.7   c-6.1,2.5-12.2,4.8-18.4,7.1c-18.7,6.8-37.5,13.5-56.2,20.3C165.8,217.9,165.4,218,164.9,218.2z"/>
	<path class="st0" d="M119.7,184.2c0,5.6,0,11.2,0,16.8c-3.6,0.5-7,1.3-10.5,1.5c-7.2,0.6-14.3,1.2-21.5,1.3   c-8.8,0.1-17.4-1.3-25.8-4.3c-4.2-1.5-8-3.7-10.7-7.4c-3.6-5-2.7-10.2,2.4-13.6C59,175,65,172.8,71,170.7   c14.8-5.2,29.6-10.5,44.5-15.8c1.4-0.5,2.8-1,4.3-1.5c0,0.6,0.1,1.1,0.1,1.5c0,5.2,0,10.4,0,15.6c0,1.3-0.3,1.8-1.6,2.3   c-10.6,3.7-21.1,7.5-31.7,11.3c-1.5,0.5-3,1.3-4.3,2.2c-1.7,1.2-1.5,2.8,0.4,3.8c2.3,1.2,4.8,1.5,7.3,1.7c5.9,0.3,11.5-1,17-3.1   c3.8-1.5,7.6-2.7,11.4-4.1C118.9,184.5,119.3,184.4,119.7,184.2z"/>
</g>
</svg>